module github.com/test/api

go 1.16

require (
	cloud.google.com/go v0.112.0 // indirect
	cloud.google.com/go/compute v1.23.3 // indirect
	cloud.google.com/go/compute/metadata v0.2.3 // indirect
	cloud.google.com/go/iam v1.1.5 // indirect
	cloud.google.com/go/longrunning v0.5.4 // indirect
	cloud.google.com/go/spanner v1.55.0 // indirect
	cloud.google.com/go/storage v1.37.0 // indirect
	github.com/99designs/go-keychain v0.0.0-20191008050251-8e49817e8af4 // indirect
	github.com/99designs/keyring v1.2.2 // indirect
	github.com/Azure/azure-sdk-for-go/sdk/azcore v1.9.1 // indirect
	github.com/Azure/azure-sdk-for-go/sdk/internal v1.5.1 // indirect
	github.com/Azure/azure-sdk-for-go/sdk/storage/azblob v1.2.1 // indirect
	github.com/Azure/go-autorest v14.2.0+incompatible // indirect
	github.com/Azure/go-autorest/autorest/adal v0.9.23 // indirect
	github.com/Azure/go-autorest/autorest/date v0.3.0 // indirect
	github.com/Azure/go-autorest/logger v0.2.1 // indirect
	github.com/Azure/go-autorest/tracing v0.6.0 // indirect
	github.com/ClickHouse/clickhouse-go v1.5.4 // indirect
	github.com/JohnCGriffin/overflow v0.0.0-20211019200055-46fa312c352c // indirect
	github.com/andybalholm/brotli v1.1.0 // indirect
	github.com/apache/arrow/go/v10 v10.0.1 // indirect
	github.com/apache/arrow/go/v14 v14.0.2 // indirect
	github.com/apache/thrift v0.19.0 // indirect
	github.com/aws/aws-sdk-go v1.50.3 // indirect
	github.com/aws/aws-sdk-go-v2 v1.24.1 // indirect
	github.com/aws/aws-sdk-go-v2/aws/protocol/eventstream v1.5.4 // indirect
	github.com/aws/aws-sdk-go-v2/credentials v1.16.16 // indirect
	github.com/aws/aws-sdk-go-v2/feature/s3/manager v1.15.15 // indirect
	github.com/aws/aws-sdk-go-v2/internal/configsources v1.2.10 // indirect
	github.com/aws/aws-sdk-go-v2/internal/endpoints/v2 v2.5.10 // indirect
	github.com/aws/aws-sdk-go-v2/internal/v4a v1.2.10 // indirect
	github.com/aws/aws-sdk-go-v2/service/internal/accept-encoding v1.10.4 // indirect
	github.com/aws/aws-sdk-go-v2/service/internal/checksum v1.2.10 // indirect
	github.com/aws/aws-sdk-go-v2/service/internal/presigned-url v1.10.10 // indirect
	github.com/aws/aws-sdk-go-v2/service/internal/s3shared v1.16.10 // indirect
	github.com/aws/aws-sdk-go-v2/service/s3 v1.48.1 // indirect
	github.com/aws/smithy-go v1.19.0 // indirect
	github.com/bytedance/sonic v1.10.2 // indirect
	github.com/cenkalti/backoff/v4 v4.2.1 // indirect
	github.com/census-instrumentation/opencensus-proto v0.4.1 // indirect
	github.com/cespare/xxhash/v2 v2.2.0 // indirect
	github.com/chenzhuoyu/base64x v0.0.0-20230717121745-296ad89f973d // indirect
	github.com/chenzhuoyu/iasm v0.9.1 // indirect
	github.com/cloudflare/golz4 v0.0.0-20150217214814-ef862a3cdc58 // indirect
	github.com/cncf/udpa/go v0.0.0-20220112060539-c52dc94e7fbe // indirect
	github.com/cncf/xds/go v0.0.0-20231128003011-0fa0005c9caa // indirect
	github.com/cockroachdb/cockroach-go/v2 v2.3.6 // indirect
	github.com/cznic/mathutil v0.0.0-20181122101859-297441e03548 // indirect
	github.com/danieljoos/wincred v1.2.1 // indirect
	github.com/dustin/go-humanize v1.0.1 // indirect
	github.com/dvsekhvalnov/jose2go v1.6.0 // indirect
	github.com/edsrzf/mmap-go v1.1.0 // indirect
	github.com/envoyproxy/go-control-plane v0.12.0 // indirect
	github.com/envoyproxy/protoc-gen-validate v1.0.4 // indirect
	github.com/felixge/httpsnoop v1.0.4 // indirect
	github.com/form3tech-oss/jwt-go v3.2.5+incompatible // indirect
	github.com/gabriel-vasile/mimetype v1.4.3 // indirect
	github.com/gin-contrib/cors v1.5.0 // indirect
	github.com/gin-contrib/sse v0.1.0 // indirect
	github.com/gin-gonic/gin v1.9.1 // indirect
	github.com/go-logr/logr v1.4.1 // indirect
	github.com/go-logr/stdr v1.2.2 // indirect
	github.com/go-playground/locales v0.14.1 // indirect
	github.com/go-playground/universal-translator v0.18.1 // indirect
	github.com/go-playground/validator/v10 v10.17.0 // indirect
	github.com/go-sql-driver/mysql v1.7.1 // indirect
	github.com/go-stack/stack v1.8.1 // indirect
	github.com/goccy/go-json v0.10.2 // indirect
	github.com/gocql/gocql v1.6.0 // indirect
	github.com/godbus/dbus v0.0.0-20190726142602-4481cbc300e2 // indirect
	github.com/golang-jwt/jwt/v4 v4.5.0 // indirect
	github.com/golang-migrate/migrate v3.5.3+incompatible // indirect
	github.com/golang-migrate/migrate/v4 v4.17.0 // indirect
	github.com/golang-sql/civil v0.0.0-20220223132316-b832511892a9 // indirect
	github.com/golang-sql/sqlexp v0.1.0 // indirect
	github.com/golang/groupcache v0.0.0-20210331224755-41bb18bfe9da // indirect
	github.com/golang/protobuf v1.5.3 // indirect
	github.com/golang/snappy v0.0.4 // indirect
	github.com/google/flatbuffers v23.5.26+incompatible // indirect
	github.com/google/go-github/v39 v39.2.0 // indirect
	github.com/google/go-querystring v1.1.0 // indirect
	github.com/google/s2a-go v0.1.7 // indirect
	github.com/google/uuid v1.6.0 // indirect
	github.com/googleapis/enterprise-certificate-proxy v0.3.2 // indirect
	github.com/googleapis/gax-go/v2 v2.12.0 // indirect
	github.com/gorilla/handlers v1.5.2 // indirect
	github.com/gorilla/mux v1.8.1 // indirect
	github.com/gsterjov/go-libsecret v0.0.0-20161001094733-a6f4afe4910c // indirect
	github.com/hailocab/go-hostpool v0.0.0-20160125115350-e80d13ce29ed // indirect
	github.com/hashicorp/errwrap v1.1.0 // indirect
	github.com/hashicorp/go-cleanhttp v0.5.2 // indirect
	github.com/hashicorp/go-multierror v1.1.1 // indirect
	github.com/hashicorp/go-retryablehttp v0.7.5 // indirect
	github.com/jackc/chunkreader/v2 v2.0.1 // indirect
	github.com/jackc/pgconn v1.14.1 // indirect
	github.com/jackc/pgerrcode v0.0.0-20220416144525-469b46aa5efa // indirect
	github.com/jackc/pgio v1.0.0 // indirect
	github.com/jackc/pgpassfile v1.0.0 // indirect
	github.com/jackc/pgproto3/v2 v2.3.2 // indirect
	github.com/jackc/pgservicefile v0.0.0-20231201235250-de7065d80cb9 // indirect
	github.com/jackc/pgtype v1.14.1 // indirect
	github.com/jackc/pgx/v4 v4.18.1 // indirect
	github.com/jackc/pgx/v5 v5.5.2 // indirect
	github.com/jackc/puddle/v2 v2.2.1 // indirect
	github.com/jmespath/go-jmespath v0.4.0 // indirect
	github.com/joho/godotenv v1.5.1 // indirect
	github.com/json-iterator/go v1.1.12 // indirect
	github.com/k0kubun/pp v3.0.1+incompatible // indirect
	github.com/kardianos/osext v0.0.0-20190222173326-2bc1f35cddc0 // indirect
	github.com/kballard/go-shellquote v0.0.0-20180428030007-95032a82bc51 // indirect
	github.com/klauspost/asmfmt v1.3.2 // indirect
	github.com/klauspost/compress v1.17.4 // indirect
	github.com/klauspost/cpuid/v2 v2.2.6 // indirect
	github.com/ktrysmt/go-bitbucket v0.9.74 // indirect
	github.com/leodido/go-urn v1.2.4 // indirect
	github.com/lib/pq v1.10.9 // indirect
	github.com/mattn/go-colorable v0.1.13 // indirect
	github.com/mattn/go-isatty v0.0.20 // indirect
	github.com/mattn/go-sqlite3 v1.14.19 // indirect
	github.com/microsoft/go-mssqldb v1.6.0 // indirect
	github.com/minio/asm2plan9s v0.0.0-20200509001527-cdd76441f9d8 // indirect
	github.com/minio/c2goasm v0.0.0-20190812172519-36a3d3bbc4f3 // indirect
	github.com/mitchellh/mapstructure v1.5.0 // indirect
	github.com/modern-go/concurrent v0.0.0-20180306012644-bacd9c7ef1dd // indirect
	github.com/modern-go/reflect2 v1.0.2 // indirect
	github.com/montanaflynn/stats v0.7.1 // indirect
	github.com/mtibben/percent v0.2.1 // indirect
	github.com/mutecomm/go-sqlcipher/v4 v4.4.2 // indirect
	github.com/nakagami/firebirdsql v0.9.7 // indirect
	github.com/neo4j/neo4j-go-driver v1.8.3 // indirect
	github.com/pelletier/go-toml/v2 v2.1.1 // indirect
	github.com/pierrec/lz4/v4 v4.1.21 // indirect
	github.com/pkg/browser v0.0.0-20240102092130-5ac0b6a4141c // indirect
	github.com/pkg/errors v0.9.1 // indirect
	github.com/remyoudompheng/bigfft v0.0.0-20230129092748-24d4a6f8daec // indirect
	github.com/rqlite/gorqlite v0.0.0-20240122221808-a8a425b1a6aa // indirect
	github.com/rs/cors v1.10.1 // indirect
	github.com/shopspring/decimal v1.3.1 // indirect
	github.com/sirupsen/logrus v1.9.3 // indirect
	github.com/snowflakedb/gosnowflake v1.7.2 // indirect
	github.com/twitchyliquid64/golang-asm v0.15.1 // indirect
	github.com/ugorji/go/codec v1.2.12 // indirect
	github.com/xanzy/go-gitlab v0.96.0 // indirect
	github.com/xdg-go/pbkdf2 v1.0.0 // indirect
	github.com/xdg-go/scram v1.1.2 // indirect
	github.com/xdg-go/stringprep v1.0.4 // indirect
	github.com/youmark/pkcs8 v0.0.0-20201027041543-1326539a0a0a // indirect
	github.com/zeebo/xxh3 v1.0.2 // indirect
	gitlab.com/nyarla/go-crypt v0.0.0-20160106005555-d9a5dc2b789b // indirect
	go.mongodb.org/mongo-driver v1.13.1 // indirect
	go.opencensus.io v0.24.0 // indirect
	go.opentelemetry.io/contrib/instrumentation/google.golang.org/grpc/otelgrpc v0.47.0 // indirect
	go.opentelemetry.io/contrib/instrumentation/net/http/otelhttp v0.47.0 // indirect
	go.opentelemetry.io/otel v1.22.0 // indirect
	go.opentelemetry.io/otel/metric v1.22.0 // indirect
	go.opentelemetry.io/otel/trace v1.22.0 // indirect
	go.uber.org/atomic v1.11.0 // indirect
	golang.org/x/arch v0.7.0 // indirect
	golang.org/x/crypto v0.18.0 // indirect
	golang.org/x/exp v0.0.0-20240119083558-1b970713d09a // indirect
	golang.org/x/mod v0.14.0 // indirect
	golang.org/x/net v0.20.0 // indirect
	golang.org/x/oauth2 v0.16.0 // indirect
	golang.org/x/sync v0.6.0 // indirect
	golang.org/x/sys v0.16.0 // indirect
	golang.org/x/term v0.16.0 // indirect
	golang.org/x/text v0.14.0 // indirect
	golang.org/x/time v0.5.0 // indirect
	golang.org/x/tools v0.17.0 // indirect
	golang.org/x/xerrors v0.0.0-20231012003039-104605ab7028 // indirect
	google.golang.org/api v0.157.0 // indirect
	google.golang.org/appengine v1.6.8 // indirect
	google.golang.org/genproto v0.0.0-20240123012728-ef4313101c80 // indirect
	google.golang.org/genproto/googleapis/api v0.0.0-20240123012728-ef4313101c80 // indirect
	google.golang.org/genproto/googleapis/rpc v0.0.0-20240123012728-ef4313101c80 // indirect
	google.golang.org/grpc v1.61.0 // indirect
	google.golang.org/protobuf v1.32.0 // indirect
	gopkg.in/inf.v0 v0.9.1 // indirect
	gopkg.in/yaml.v3 v3.0.1 // indirect
	lukechampine.com/uint128 v1.3.0 // indirect
	modernc.org/b v1.1.0 // indirect
	modernc.org/cc/v3 v3.41.0 // indirect
	modernc.org/ccgo/v3 v3.16.15 // indirect
	modernc.org/db v1.0.10 // indirect
	modernc.org/file v1.0.8 // indirect
	modernc.org/fileutil v1.2.0 // indirect
	modernc.org/golex v1.1.0 // indirect
	modernc.org/internal v1.1.0 // indirect
	modernc.org/libc v1.40.7 // indirect
	modernc.org/lldb v1.0.8 // indirect
	modernc.org/mathutil v1.6.0 // indirect
	modernc.org/memory v1.7.2 // indirect
	modernc.org/opt v0.1.3 // indirect
	modernc.org/ql v1.4.7 // indirect
	modernc.org/sortutil v1.2.0 // indirect
	modernc.org/sqlite v1.28.0 // indirect
	modernc.org/strutil v1.2.0 // indirect
	modernc.org/token v1.1.0 // indirect
	modernc.org/zappy v1.1.0 // indirect
)
